Hamlet, data models, interaction graphs and other cool stuff
…
> hamlet[6380:6381, ]
# A tibble: 2 x 2
  text                                                           original_line_number
  <chr>                                                                         <int>
1 [Enter King, Queen, Laertes, Lords, Osric, and Attendants with                 6380
2 foils &c.]                                                                     6381

Scenes and Acts

Similarly, we can use regular expression to find with nearly 100% accuracy the beginnings of Scenes and Acts. Note that the capitalisation of Act is inconsistent:

> # Scenes and acts. Sometimes upper case sometimes not
> hamlet %>%
+   filter(grepl("^Scene\\s", text, ignore.case = TRUE) | grepl("^Act\\s", text, ignore.case = TRUE))
# A tibble: 26 x 2
   text                                               original_line_number
   <chr>                                                             <int>
 1 ACT I.                                                               43
 2 Scene I. Elsinore. A platform before the Castle.                     45
 3 Scene II. Elsinore. A room of state in the Castle.                  378
 4 Scene III. A room in Polonius's house.                              822
 5 Scene IV. The platform.                                            1029
 6 Scene V. A more remote part of the Castle.                         1211
 7 Act II.                                                            1560
 8 Scene I. A room in Polonius's house.                               1562
 9 Scene II. A room in the Castle.                                    1779
10 ACT III.                                                           2744
# ... with 16 more rows
…
A table of data with “spoken line” as grain

I use these lookup tables and vectors to create my first tidier version of the data, hamlet_lines. This object is shown below. In this version, each row of the table is a complete line of dialogue. Rows of the original data that are not dialogue but refer to the Act, Scene, stage direction or who is speaking have been pivoted wider to appear as columns such as speaker, last_stage_direction, act and scene.

Here is how that object looks:

> hamlet_lines
# A tibble: 3,945 x 11
   text        original_line_nu~ speaker_abb speaker   speaker_sh main_character last_stage_direction act    scene      new_speaker_thi~ line_number_thi~
   <chr>                   <int> <chr>       <chr>     <chr>      <lgl>          <chr>                <chr>  <chr>      <lgl>                       <dbl>
 1 Who's ther~                50 Ber.        Bernardo~ Bernardo   FALSE          Francisco at his po~ ACT I. Scene I. ~ TRUE                            1
 2 Nay, answe~                53 Fran.       Francisc~ Francisco  FALSE          Francisco at his po~ ACT I. Scene I. ~ TRUE                            1
 3 Long live ~                56 Ber.        Bernardo~ Bernardo   FALSE          Francisco at his po~ ACT I. Scene I. ~ TRUE                            1
 4 Bernardo?                  59 Fran.       Francisc~ Francisco  FALSE          Francisco at his po~ ACT I. Scene I. ~ TRUE                            1
 5 He.                        62 Ber.        Bernardo~ Bernardo   FALSE          Francisco at his po~ ACT I. Scene I. ~ TRUE                            1
 6 You come m~                65 Fran.       Francisc~ Francisco  FALSE          Francisco at his po~ ACT I. Scene I. ~ TRUE                            1
 7 'Tis now s~                68 Ber.        Bernardo~ Bernardo   FALSE          Francisco at his po~ ACT I. Scene I. ~ TRUE                            1
 8 For this r~                71 Fran.       Francisc~ Francisco  FALSE          Francisco at his po~ ACT I. Scene I. ~ TRUE                            1
 9 And I am s~                72 Fran.       Francisc~ Francisco  FALSE          Francisco at his po~ ACT I. Scene I. ~ FALSE                           2
10 Have you h~                75 Ber.        Bernardo~ Bernardo   FALSE          Francisco at his po~ ACT I. Scene I. ~ TRUE                            1
# ... with 3,935 more rows
…
A table of data with “spoken word” as grain

My next step is to make a table or data frame with spoken word as the grain. Here I want not just bags of words, but the original sequence preserved, and whether a word was originally at the beginning of a line, as well as who is speaking (and all the different abbreviations of their name and groups that person belongs to), the last stage direction, the Act and Scene, etc. For future use I also want a stemmed version of each word (eg so “answered”, “answering” and “answers” all reduce to their stem “answer”), and a flag of whether each word is a stop word or not.

Here’s how that table is going to look, capturing all 30,000 or so words spoken in the uncut version of Hamlet”

> hamlet_words %>% select(contains("word"), everything())
# A tibble: 30,022 x 20
   word  stopword word_stem new_speaker_thi~ word_number_thi~ word_number word_number_thi~ word_number_thi~ original_line_n~ speaker_abb
   <chr> <lgl>    <chr>     <lgl>                       <dbl>       <int>            <int>            <int>            <int> <chr>      
 1 who's TRUE     who'      TRUE                            1           1                1                1               50 Ber.       
 2 there TRUE     there     FALSE                           2           2                2                2               50 Ber.       
 3 nay   FALSE    nai       TRUE                            1           3                3                3               53 Fran.      
 4 answ~ FALSE    answer    FALSE                           2           4                4                4               53 Fran.      
 5 me    TRUE     me        FALSE                           3           5                5                5               53 Fran.      
 6 stand FALSE    stand     FALSE                           4           6                6                6               53 Fran.      
 7 and   TRUE     and       FALSE                           5           7                7                7               53 Fran.      
 8 unfo~ FALSE    unfold    FALSE                           6           8                8                8               53 Fran.      
 9 your~ TRUE     yourself  FALSE                           7           9                9                9               53 Fran.      
10 long  FALSE    long      TRUE                            1          10               10               10               56 Ber.       
# ... with 30,012 more rows, and 10 more variables: speaker <chr>, speaker_sh <fct>, main_character <lgl>, last_stage_direction <chr>,
#   act <chr>, scene <chr>, new_speaker_this_line <lgl>, line_number_this_speech <dbl>, speech_number <int>, top_20_char <lgl>
…
