Do tweeps with more followers follow tweeps with more followers?
…
      # problem here when current_user has no followers:
      # a random sample from the last 1000 people to follow this person (ie biased to more 
      # recent, for people with lots of followers, but c'est la vie - important to speed things
      # up a bit)
      try(follower_samp <- sample(current_user$getFollowerIDs(n = 1000), 1))
      try(current_sn <- lookupUsers(follower_samp)[[1]]$screenName)
    }
  }
}

This gets me a sample that looks like the below.  Note that this method is prone to sampling individuals more than once, particularly highly networked users (ie lots of followers and/or lots of people following).  I’ll deal with that later by taking the average of the estimates of them.

> follow_data %>%
+   arrange(desc(number_followers))
# A tibble: 983 x 6
   number_followers number_following mean_ff trmean_ff median_ff screenName    
              <dbl>            <dbl>   <dbl>     <dbl>     <dbl> <chr>         
 1        108538969              203 6002702   1227629    450295 katyperry     
 2         71131344             1034 3113456    373193    140602 YouTube       
 3         44212387              183 3208975    594062    255161 BillGates     
 4         40436829             1868  810532     38519     17959 narendramodi  
 5         40410386             1867  810495     38519     17926 narendramodi  
 6         40409932             1867  810489     38519     17926 narendramodi  
 7         40400380             1868  809897     38479     17924 narendramodi  
 8         35470473             1661 1559447    334577    219023 SportsCenter  
 9         24954373              424 1182455    232537     96970 PMOIndia      
10         21680806              771  900960      6736      2814 HillaryClinton
# ... with 973 more rows
…
